[gd_scene load_steps=8 format=2]

[ext_resource path="res://sounds/cancel.wav" type="AudioStream" id=1]
[ext_resource path="res://sounds/soft_wind.wav" type="AudioStream" id=2]
[ext_resource path="res://sounds/short_sweep.wav" type="AudioStream" id=3]
[ext_resource path="res://sounds/laser.wav" type="AudioStream" id=4]
[ext_resource path="res://sounds/apert.wav" type="AudioStream" id=5]
[ext_resource path="res://sounds/bycicle.wav" type="AudioStream" id=6]
[ext_resource path="res://sounds/jupiter.wav" type="AudioStream" id=7]

[node name="Sfx" type="Node"]

[node name="cancel" type="AudioStreamPlayer" parent="."]
stream = ExtResource( 1 )
bus = "Sfx"

[node name="start" type="AudioStreamPlayer" parent="."]
stream = ExtResource( 5 )
bus = "Sfx"

[node name="select" type="AudioStreamPlayer" parent="."]
stream = ExtResource( 4 )
volume_db = -10.0
bus = "Sfx"

[node name="jupiter" type="AudioStreamPlayer" parent="."]
stream = ExtResource( 7 )
bus = "Music"

[node name="bycicle" type="AudioStreamPlayer" parent="."]
stream = ExtResource( 6 )
volume_db = 10.0
bus = "Sfx"

[node name="soft_wind" type="AudioStreamPlayer" parent="."]
stream = ExtResource( 2 )
volume_db = 24.0
bus = "Music"

[node name="short_sweep" type="AudioStreamPlayer" parent="."]
stream = ExtResource( 3 )
bus = "Sfx"
